EDI_PVRD_20191211_2
TableName	Actflag	Created	Changed	PvRdID	SecID	ISIN	EffectiveDate	CurenCD	OldParValue	NewParValue	EventType	Notes
PVRD	I	2014/09/23	2014/09/23	156567	4351136	USJ46186AX06	2014/09/22	USD		200000.00000	CORR	
PVRD	I	2016/05/05	2016/05/05	207732	4754537	US163851AD01	2016/05/04	USD		2000.00000	CORR	
PVRD	I	2017/02/24	2017/02/24	237571	5059284	US60687YAJ82	2017/02/23	USD		1000.00000	CORR	
PVRD	I	2017/02/24	2017/02/24	237576	5059284	US60687YAJ82	2017/02/24	USD	1000.00000	200000.00000	CORR	
PVRD	I	2018/01/05	2018/01/05	292195	5379560	US30212PAP09	2018/01/04	USD		1000	CORR	
PVRD	I	2018/04/10	2018/04/10	308233	5379560	US30212PAP09	2018/01/05	USD	1000	2000	CORR	
PVRD	I	2019/07/16	2019/07/16	397018	6014248	USY70750BL04	2019/07/15	USD		200000	CORR	
PVRD	I	2019/09/06	2019/09/06	407781	6092656	US91529YAP16	2019/09/06	USD		2000	CORR	
PVRD	I	2019/09/09	2019/09/09	408002	6095047	US46647PBE51	2019/09/09	USD	1000	2000	CORR	
PVRD	I	2019/12/03	2019/12/03	422636	6200039	DE000A254NE8	2019/12/02	EUR		1000	CORR	
PVRD	I	2019/12/05	2019/12/05	422758	6197559	DE000A2YPFX3	2019/12/02	EUR		1000	CORR	
PVRD	I	2019/12/05	2019/12/05	422765	6204118	XS2079176306	2019/12/04	USD	200000	1000	CORR	
PVRD	I	2019/12/09	2019/12/09	423111	6174019	XS2079298910	2019/12/03	USD	200000	100	CORR	
PVRD	I	2019/12/09	2019/12/09	423222	6208069	DE000A254PK0	2019/12/06	EUR		100000	CORR	
PVRD	I	2019/12/10	2019/12/10	423257	6208690	USU8882PAA58	2019/12/09	USD	2000	1000	CORR	
PVRD	I	2019/12/10	2019/12/10	423257	6208690	USU8882PAA58	2019/12/09	USD	2000	1000	CORR	
PVRD	I	2019/12/10	2019/12/10	423380	6180620	XS2060706921	2019/11/08	EUR		100000	CORR	
PVRD	I	2019/12/10	2019/12/10	423381	6180644	XS2060707226	2019/11/08	EUR		250000	CORR	
PVRD	I	2019/12/10	2019/12/10	423382	6180604	XS2060707499	2019/11/08	EUR		100000	CORR	
PVRD	I	2019/12/10	2019/12/10	423383	6180506	XS2060707739	2019/11/08	EUR		250000	CORR	
PVRD	I	2019/12/10	2019/12/10	423384	6180537	XS2060707143	2019/11/08	EUR		100000	CORR	
PVRD	I	2019/12/10	2019/12/10	423385	6180621	XS2060707655	2019/11/08	EUR		250000	CORR	
PVRD	I	2019/12/10	2019/12/10	423386	6180521	XS2060706509	2019/11/08	EUR		100000	CORR	
PVRD	I	2019/12/10	2019/12/10	423387	6180561	XS2060706681	2019/11/08	EUR		250000	CORR	
PVRD	I	2019/12/10	2019/12/10	423389	6180649	XS2060707069	2019/11/08	EUR		250000	CORR	
PVRD	I	2019/12/10	2019/12/10	423390	6180653	XS2060706848	2019/11/08	EUR		250000	CORR	
PVRD	I	2019/12/10	2019/12/10	423400	6159594	FR0125914293	2019/10/28	EUR		1	CORR	
PVRD	I	2019/12/11	2019/12/11	423410	6201952	FR0013465424	2019/12/09	EUR	1000	100000	CORR	
PVRD	I	2019/12/11	2019/12/11	423410	6201952	FR0013465424	2019/12/09	EUR	1000	100000	CORR	
PVRD	I	2019/12/11	2019/12/11	423410	6201952	FR0013465424	2019/12/09	EUR	1000	100000	CORR	
PVRD	I	2019/12/11	2019/12/11	423416	4352704	DK0009292633	2014/08/26	DKK	1000	0.01	CORR	
PVRD	I	2019/12/11	2019/12/11	423416	4352704	DK0009292633	2014/08/26	DKK	1000	0.01	CORR	
PVRD	I	2019/12/11	2019/12/11	423427	6208666	XS2010033855	2019/12/07	EUR	100000	1000	CORR	
PVRD	I	2019/12/11	2019/12/11	423428	6208652	XS2010034077	2019/12/07	EUR	100000	1000	CORR	
PVRD	I	2019/12/11	2019/12/11	423430	5975732	DK0004612967	2019/06/04	DKK		0.01	CORR	
PVRD	I	2019/12/11	2019/12/11	423430	5975732	DK0004612967	2019/06/04	DKK		0.01	CORR	
PVRD	I	2019/12/11	2019/12/11	423433	6208562	XS2010033269	2019/12/07	EUR	100000	1000	CORR	
PVRD	I	2019/12/11	2019/12/11	423437	6208660	XS2010033772	2019/12/10	EUR	100000	1000	CORR	
PVRD	I	2019/12/11	2019/12/11	423439	6088261	DK0004613262	2019/08/08	DKK		0.01	CORR	
PVRD	I	2019/12/11	2019/12/11	423439	6088261	DK0004613262	2019/08/08	DKK		0.01	CORR	
PVRD	I	2019/12/11	2019/12/11	423444	6088265	DK0004613189	2019/09/01	DKK	1000	0.01	CORR	
PVRD	I	2019/12/11	2019/12/11	423448	6101876	DK0009525594	2019/09/12	DKK		0.01	CORR	
PVRD	I	2019/12/11	2019/12/11	423457	6126333	DK0009523623	2019/04/01	DKK		0.01	CORR	
PVRD	I	2019/12/11	2019/12/11	423462	6126335	DK0009525677	2019/04/01	DKK		0.01	CORR	
PVRD	I	2019/12/11	2019/12/11	423466	6126336	DK0009525750	2019/04/01	DKK		0.01	CORR	
PVRD	I	2019/12/11	2019/12/11	423467	6126337	DK0009525834	2019/04/01	DKK		0.01	CORR	
PVRD	I	2019/12/11	2019/12/11	423468	6101880	DK0009525164	2019/07/01	DKK		0.01	CORR	
PVRD	I	2019/12/11	2019/12/11	423476	6122287	XS2061835786	2019/12/03	USD	10000	250000	CORR	
PVRD	I	2019/12/11	2019/12/11	423479	6194643	DE000DK0VMS5	2019/11/28	EUR	1	10000	CORR	
PVRD	I	2019/12/11	2019/12/11	423483	6124031	XS2022017680	2019/12/03	USD	1000	100000	CORR	
PVRD	I	2019/12/11	2019/12/11	423484	6124045	XS2022018068	2019/12/03	USD	1000	100000	CORR	
PVRD	I	2019/12/11	2019/12/11	423486	6042539	XS2008553708	2019/07/30	EUR	1000	100000	CORR	
PVRD	I	2019/12/11	2019/12/11	423487	6211362	IE00BKP4YP93	2019/09/02	EUR		100000	CORR	
PVRD	I	2019/12/11	2019/12/11	423487	6211362	IE00BKP4YP93	2019/09/02	EUR		100000	CORR	
PVRD	I	2019/12/11	2019/12/11	423488	6180485	XS2060708463	2019/11/08	EUR		250000	CORR	
PVRD	I	2019/12/11	2019/12/11	423489	6137856	XS2066217535	2019/10/21	EUR	1000	100000	CORR	
PVRD	I	2019/12/11	2019/12/11	423490	6137866	XS2066217618	2019/10/21	EUR	1000	100000	CORR	
PVRD	I	2019/12/11	2019/12/11	423491	6137874	XS2066217709	2019/10/21	EUR	1000	100000	CORR	
PVRD	I	2019/12/11	2019/12/11	423492	6137848	XS2066217451	2019/10/21	EUR	1000	250000	CORR	
PVRD	I	2019/12/11	2019/12/11	423493	6137845	XS2066217378	2019/10/21	EUR	1000	250000	CORR	
PVRD	I	2019/12/11	2019/12/11	423494	6137840	XS2066217295	2019/10/21	EUR	1000	250000	CORR	
PVRD	I	2019/12/11	2019/12/11	423495	6042532	XS2008555158	2019/07/30	EUR	1000	100000	CORR	
PVRD	I	2019/12/11	2019/12/11	423496	5984459	XS2008555828	2019/07/29	EUR	1000	100000	CORR	
PVRD	I	2019/12/11	2019/12/11	423498	6042564	XS2008555315	2019/07/30	EUR	1000	100000	CORR	
PVRD	I	2019/12/11	2019/12/11	423502	6042558	XS2008553880	2019/07/30	EUR	1000	100000	CORR	
PVRD	I	2019/12/11	2019/12/11	423504	6042691	XS2008553377	2019/07/30	EUR	1000	100000	CORR	
PVRD	I	2019/12/11	2019/12/11	423506	6042552	XS2008554938	2019/07/30	EUR	1000	100000	CORR	
PVRD	I	2019/12/11	2019/12/11	423508	6042699	XS2008553450	2019/07/30	EUR	1000	100000	CORR	
PVRD	I	2019/12/11	2019/12/11	423516	6042607	XS2008556123	2019/07/30	EUR	1000	100000	CORR	
PVRD	I	2019/12/11	2019/12/11	423522	6200976	FRSG00010L01	2019/11/28	EUR		1000	CORR	
PVRD	I	2019/12/11	2019/12/11	423522	6200976	FRSG00010L01	2019/11/28	EUR		1000	CORR	
PVRD	I	2019/12/11	2019/12/11	423526	6197371	XS2078897928	2019/12/09	USD	1000	200000	CORR	
PVRD	I	2019/12/11	2019/12/11	423526	6197371	XS2078897928	2019/12/09	USD	1000	200000	CORR	
PVRD	I	2019/12/11	2019/12/11	423527	6042613	XS2008554268	2019/07/30	EUR	1000	100000	CORR	
PVRD	I	2019/12/11	2019/12/11	423529	6042624	XS2008555588	2019/07/30	EUR	1000	100000	CORR	
PVRD	I	2019/12/11	2019/12/11	423531	6147951	XS2066218939	2019/10/22	EUR	1000	100000	CORR	
PVRD	I	2019/12/11	2019/12/11	423532	6147959	XS2066219077	2019/10/22	EUR	1000	100000	CORR	
PVRD	I	2019/12/11	2019/12/11	423533	6148117	XS2066218772	2019/10/22	EUR	1000	100000	CORR	
PVRD	I	2019/12/11	2019/12/11	423534	6148111	XS2066218343	2019/10/23	EUR	1000	250000	CORR	
PVRD	I	2019/12/11	2019/12/11	423535	6042684	XS2008556396	2019/07/30	EUR	1000	100000	CORR	
PVRD	I	2019/12/11	2019/12/11	423536	6147932	XS2066218855	2019/10/22	EUR	1000	250000	CORR	
PVRD	I	2019/12/11	2019/12/11	423537	6148108	XS2066218699	2019/10/22	EUR	1000	250000	CORR	
EDI_ENDOFFILE
