EDI_BBCC_20191211_2
tablename	ActFlag	Created	Changed	BbccId	SecId	ISIN	BbcId	Oldcntrycd	Oldcurencd	EffectiveDate	Newcntrycd	Newcurencd	OldbbgcompId	NewbbgcompId	Oldbbgcomptk	Newbbgcomptk	ReleventId	EventType	Notes
EDI_ENDOFFILE
