EDI_BBEC_20191211_2
tablename	ActFlag	Created	Changed	BbecId	SecId	ISIN	BbeId	Oldexchgcd	Oldcurencd	EffectiveDate	Newexchgcd	Newcurencd	OldbbgexhId	NewbbgexhId	Oldbbgexhtk	Newbbgexhtk	ReleventId	EventType	Notes
BBEC	I	2016/05/19	2016/05/19	106015	4754537	US163851AD01	767127			2016/05/18			BBG00CNXM4J2	BBG00CNXM4J2	CC 7 05/15/25 WI	CC 7 05/15/25			No further information
EDI_ENDOFFILE
