EDI_SPOBS_20191211_2
TableName	Actflag	Created	Changed	SecID	ISIN	SpobsID	ObservationPayoutType	ObservationFromDate	ObservaionToDate	ObservationDays	ObservationDaysConvention	ObservationBusDayConv	DeterminationFromDate	DeterminationToDate	DeterminationDays	DeterminationDaysConvention	DeterminationBusDayConv	PayoutDate	PayoutDays	PayouttDaysConvention	PayoutBusDayConv	FixedPayoutCurrency	FixedPayoutValue	FixedPayoutPercent	MinimumPayoutCurrency	MinimumPayoutValue	MinimumPayoutPercent	MaximumPayoutCurrency	MaximumPayoutValue	MaximumPayoutPercent	Multiplier	TriggerAction	BonusCurrency	BonusValue	BonusLevelPercent	OptionStyle
SPOBS	U	2018/07/13	2019/12/11	5609708	XS1787691549	9136	INT	2018/06/21	2019/06/20				2019/06/07					2019/06/21			FBD	EUR		12.82								MEM				
SPOBS	U	2018/07/13	2019/12/11	5609708	XS1787691549	9137	INT	2019/06/21	2020/06/21				2020/06/08					2020/06/22			FBD	EUR		12.82								MEM				
SPOBS	U	2018/07/13	2019/12/11	5609708	XS1787691549	9138	INT	2020/06/22	2021/06/20				2021/06/07					2021/06/21			FBD	EUR		12.82								MEM				
SPOBS	U	2018/07/13	2019/12/11	5609708	XS1787691549	9139	INT	2021/06/21	2022/06/20				2022/06/07					2022/06/21			FBD	EUR		12.82								MEM				
SPOBS	U	2018/07/17	2019/12/11	5612443	GB00BZVQZ515	9404	INT	2024/09/10	2025/09/08				2025/08/26				MFBD	2025/09/09			MFBD	GBP		6.45							1	MEM				
SPOBS	U	2018/07/17	2019/12/11	5612443	GB00BZVQZ515	9405	INT	2025/09/09	2026/09/07				2026/08/24				MFBD	2026/09/08			MFBD	GBP		6.7							1	MEM				
SPOBS	U	2018/07/17	2019/12/11	5612443	GB00BZVQZ515	9406	INT	2026/09/08	2027/09/07				2027/08/24				MFBD	2027/09/08			MFBD	GBP		6.95							1	MEM				
SPOBS	U	2018/07/17	2019/12/11	5612443	GB00BZVQZ515	9400	INT	2020/09/08	2021/09/07				2021/08/24				MFBD	2021/09/08			MFBD	GBP		5.45							1	MEM				
SPOBS	U	2018/07/17	2019/12/11	5612443	GB00BZVQZ515	9401	INT	2021/09/08	2022/09/07				2022/08/24				MFBD	2022/09/08			MFBD	GBP		5.7							1	MEM				
SPOBS	U	2018/07/17	2019/12/11	5612443	GB00BZVQZ515	9402	INT	2022/09/08	2023/09/07				2023/08/24				MFBD	2023/09/08			MFBD	GBP		5.95							1	MEM				
SPOBS	U	2018/07/17	2019/12/11	5612443	GB00BZVQZ515	9403	INT	2023/09/08	2024/09/09				2024/08/27				MFBD	2024/09/10			MFBD	GBP		6.2							1	MEM				
SPOBS	U	2018/07/17	2019/12/11	5612443	GB00BZVQZ515	9398	INT	2018/09/10	2019/09/09				2019/08/27				MFBD	2019/09/10			MPBD	GBP		4.95							1	MEM				
SPOBS	U	2018/07/17	2019/12/11	5612443	GB00BZVQZ515	9399	INT	2019/09/10	2020/09/07				2020/08/24				MFBD	2020/09/08			MFBD	GBP		5.2							1	MEM				
SPOBS	U	2018/07/18	2019/12/11	5612675	XS1787706917	9461	AUT						2019/07/08					2019/07/22				EUR	1075	107.5								MEM				BM
SPOBS	U	2018/07/18	2019/12/11	5612675	XS1787706917	9462	AUT						2020/01/06					2020/01/20				EUR	1112.5	111.25								MEM				BM
SPOBS	U	2018/07/18	2019/12/11	5612675	XS1787706917	9463	AUT						2020/07/06					2020/07/20				EUR	1150	115								MEM				BM
SPOBS	U	2018/07/18	2019/12/11	5612675	XS1787706917	9464	AUT						2021/01/06					2021/01/20				EUR	1187.5	118.75								MEM				BM
SPOBS	U	2018/07/18	2019/12/11	5612675	XS1787706917	9465	AUT						2021/07/06					2021/07/20				EUR	1225	122.5								MEM				BM
SPOBS	U	2018/07/18	2019/12/11	5612675	XS1787706917	9466	AUT						2022/01/06					2022/01/20				EUR	1262.5	126.25								MEM				BM
SPOBS	U	2018/07/18	2019/12/11	5612675	XS1787706917	9467	AUT						2022/07/06					2022/07/20				EUR	1300	130								MEM				BM
SPOBS	U	2018/07/18	2019/12/11	5612675	XS1787706917	9468	AUT						2023/01/06					2023/01/20				EUR	1337.5	133.75								MEM				BM
SPOBS	U	2018/07/18	2019/12/11	5612675	XS1787706917	9469	AUT						2023/07/06					2023/07/20				EUR	1375	137.5								MEM				BM
SPOBS	U	2018/07/18	2019/12/11	5612675	XS1787706917	9470	AUT						2024/01/08					2024/01/22				EUR	1412.5	141.25								MEM				BM
SPOBS	U	2018/07/18	2019/12/11	5612675	XS1787706917	9471	AUT						2024/07/08					2024/07/22				EUR	1450	145								MEM				BM
SPOBS	U	2018/07/18	2019/12/11	5612675	XS1787706917	9472	AUT						2025/01/06					2025/01/20				EUR	1487.5	148.75								MEM				BM
SPOBS	U	2018/07/18	2019/12/11	5612675	XS1787706917	9473	AUT						2025/07/07					2025/07/21				EUR	1525	152.5								MEM				BM
SPOBS	U	2018/07/18	2019/12/11	5612675	XS1787706917	9474	AUT						2026/01/06					2026/01/20				EUR	1562.5	156.25								MEM				BM
SPOBS	U	2018/07/18	2019/12/11	5612675	XS1787706917	9475	AUT						2026/07/06					2026/07/20				EUR	1600	160								MEM				BM
SPOBS	U	2018/07/18	2019/12/11	5612675	XS1787706917	9476	AUT						2027/01/06					2027/01/20				EUR	1637.5	163.75								MEM				BM
SPOBS	U	2018/07/18	2019/12/11	5612675	XS1787706917	9477	AUT						2027/07/06					2027/07/20				EUR	1675	167.5								MEM				BM
SPOBS	U	2018/07/18	2019/12/11	5612675	XS1787706917	9478	AUT						2028/01/06					2028/01/20				EUR	1712.5	171.25								MEM				BM
SPOBS	U	2018/07/18	2019/12/11	5612675	XS1787706917	9479	AUT						2018/07/19	2019/07/08				2019/07/22				EUR	1075	107.5								MEM				BM
SPOBS	U	2019/04/12	2019/12/11	5914536	XS1804857917	34231	AUT						2020/01/21					2020/02/04				EUR		122.5								MEM				BM
EDI_ENDOFFILE
