EDI_INTBC_20191211_2
TableName	Actflag	Created	Changed	IntbcID	SecID	ISIN	EffectiveDate	OldIntBasis	NewIntBasis	OldIntBDC	NewIntBDC
INTBC	D	2019/09/09	2019/09/09	62564	6095047	US46647PBE51	2029/10/15	FXD	FR		
INTBC	I	2019/09/09	2019/09/09	62568	6095047	US46647PBE51	2029/10/15	FXD	FR	FBD	MFBD
INTBC	D	2019/11/26	2019/12/11	63319	6192770	RU000A1013N6	2019/12/26	FXD	FR		
INTBC	I	2019/12/11	2019/12/11	63558	6115443	DK0030451299	2023/09/23	FXD	FR	FBD	FBD
INTBC	I	2019/12/11	2019/12/11	63560	6192770	RU000A1013N6	2019/12/26	FXD	FR	FBD	FBD
INTBC	I	2019/12/11	2019/12/11	63561	6213612	DE000WLB6EK4	2010/03/22	FXD	FR		
EDI_ENDOFFILE
