EDI_SP_20191211_2
TableName	Actflag	Created	Changed	SecID	ISIN	StructureName	Strategy	UnderlyingClassification	SettlementCurrency	ClassificationAgency	ClassificationCode	IssuerBrand	IssuerProductName	Feature1	Feature2	Feature3	Feature4	Feature5	Feature6	Feature7	ExpiryTimeZone	OfferOpenDate	OfferOpenTime	OfferCloseDate	OfferCloseTime	InitialFixingDate	InitialFixingTime	FinalFixingDate	FinalFixingTime	StrikeDate	FirstTradeDate	LastTradeDate	BondFloor	QuoteStyle	CapitalProtectionLevel	ConditionalCapitalProtection	ProtectionCushion	ParticipationFactor1	ParticipationType1	ParticipationFactor2	ParticipationType2	UnderlyingBasketCapLevel	TenureMaxYield	AnnualisedMaxYield	QuantoCurrency	Notes
SP	U	2019/04/11	2019/12/11	5914536	XS1804857917	Yield Enhancement Note linked to Commodity	YE	CLN	EUR					AUT	CAP	KNI	MEM				CEST	2018/07/16		2018/07/20		2018/07/20		2020/07/20		2018/07/20	2018/07/13						70								EUR	
EDI_ENDOFFILE
